<svg width="32" height="32" version="1.1" xmlns="http://www.w3.org/2000/svg">
   <path d="M 16 6 a 10 10 0 0 0 -10 10 a 10 10 0 0 0 10 10 a 10 10 0 0 0 10 -10 l -10 0" stroke="white" stroke-width="4" fill="none" />
   <path d="M 16 0 l 0 8" stroke="white" stroke-width="4" fill="none" />
   <path d="M 0 16 l 8 0" stroke="white" stroke-width="4" fill="none" />
   <path d="M 16 32 l 0 -8" stroke="white" stroke-width="4" fill="none" />
   <path d="M 32 16 l -10 0" stroke="white" stroke-width="4" fill="none" />
   <circle cx="16" cy="16" r="3" fill="#ffc107" />
</svg>